{
    "shortid": "SJzJyv829e",
    "name": "Population",
    "creationDate": {
        "$$date": 1532232074635
    },
    "modificationDate": {
        "$$date": 1532232074635
    },
    "_id": "1ejLqwEOb26QkOxI",
    "$entitySet": "data"
}